%YAML 1.1
%TAG !u! tag:unity3d.com,2011:
--- !u!74 &7400000
AnimationClip:
  m_ObjectHideFlags: 0
  m_CorrespondingSourceObject: {fileID: 0}
  m_PrefabInstance: {fileID: 0}
  m_PrefabAsset: {fileID: 0}
  m_Name: Hovered
  serializedVersion: 6
  m_Legacy: 0
  m_Compressed: 0
  m_UseHighQualityCurve: 1
  m_RotationCurves: []
  m_CompressedRotationCurves: []
  m_EulerCurves: []
  m_PositionCurves: []
  m_ScaleCurves: []
  m_FloatCurves: []
  m_PPtrCurves:
  - curve:
    - time: 0
      value: {fileID: 21300000, guid: a18d97f681a8ab94786eb8b2b133c5b3, type: 3}
    - time: 0.083333336
      value: {fileID: 21300000, guid: 52480b25290a55e49a73babafe9d8792, type: 3}
    - time: 0.18333334
      value: {fileID: 21300000, guid: 11b48f94b7766844d9ce7e3ec33c4808, type: 3}
    - time: 0.25
      value: {fileID: 21300000, guid: 37b854ed1b420134fac6d20dca616f6c, type: 3}
    - time: 0.33333334
      value: {fileID: 21300000, guid: 2292a0b80666ed346bff4db815fca68e, type: 3}
    - time: 0.41666666
      value: {fileID: 21300000, guid: be6f3e10f52e9c941be20daf12f14f25, type: 3}
    - time: 0.5
      value: {fileID: 21300000, guid: d5a9aaf18202505429bea66f23dc088d, type: 3}
    - time: 0.5833333
      value: {fileID: 21300000, guid: 6ec1f4a7f53ac5b49a9e7be2221fce68, type: 3}
    - time: 0.6666667
      value: {fileID: 21300000, guid: cefbace7ff1adae44b87b7fffe90e0b2, type: 3}
    - time: 0.75
      value: {fileID: 21300000, guid: a679560b74657724f991c34bc4f703cf, type: 3}
    - time: 0.8333333
      value: {fileID: 21300000, guid: 136a29985f262874b9dad5dc9b7a8109, type: 3}
    - time: 0.9166667
      value: {fileID: 21300000, guid: aadd1608a91532446b15113287af2ce5, type: 3}
    attribute: m_Sprite
    path: 
    classID: 114
    script: {fileID: 11500000, guid: fe87c0e1cc204ed48ad3b37840f39efc, type: 3}
  m_SampleRate: 60
  m_WrapMode: 0
  m_Bounds:
    m_Center: {x: 0, y: 0, z: 0}
    m_Extent: {x: 0, y: 0, z: 0}
  m_ClipBindingConstant:
    genericBindings:
    - serializedVersion: 2
      path: 0
      attribute: 2015549526
      script: {fileID: 11500000, guid: fe87c0e1cc204ed48ad3b37840f39efc, type: 3}
      typeID: 114
      customType: 0
      isPPtrCurve: 1
    pptrCurveMapping:
    - {fileID: 21300000, guid: a18d97f681a8ab94786eb8b2b133c5b3, type: 3}
    - {fileID: 21300000, guid: 52480b25290a55e49a73babafe9d8792, type: 3}
    - {fileID: 21300000, guid: 11b48f94b7766844d9ce7e3ec33c4808, type: 3}
    - {fileID: 21300000, guid: 37b854ed1b420134fac6d20dca616f6c, type: 3}
    - {fileID: 21300000, guid: 2292a0b80666ed346bff4db815fca68e, type: 3}
    - {fileID: 21300000, guid: be6f3e10f52e9c941be20daf12f14f25, type: 3}
    - {fileID: 21300000, guid: d5a9aaf18202505429bea66f23dc088d, type: 3}
    - {fileID: 21300000, guid: 6ec1f4a7f53ac5b49a9e7be2221fce68, type: 3}
    - {fileID: 21300000, guid: cefbace7ff1adae44b87b7fffe90e0b2, type: 3}
    - {fileID: 21300000, guid: a679560b74657724f991c34bc4f703cf, type: 3}
    - {fileID: 21300000, guid: 136a29985f262874b9dad5dc9b7a8109, type: 3}
    - {fileID: 21300000, guid: aadd1608a91532446b15113287af2ce5, type: 3}
  m_AnimationClipSettings:
    serializedVersion: 2
    m_AdditiveReferencePoseClip: {fileID: 0}
    m_AdditiveReferencePoseTime: 0
    m_StartTime: 0
    m_StopTime: 0.93333334
    m_OrientationOffsetY: 0
    m_Level: 0
    m_CycleOffset: 0
    m_HasAdditiveReferencePose: 0
    m_LoopTime: 1
    m_LoopBlend: 0
    m_LoopBlendOrientation: 0
    m_LoopBlendPositionY: 0
    m_LoopBlendPositionXZ: 0
    m_KeepOriginalOrientation: 0
    m_KeepOriginalPositionY: 1
    m_KeepOriginalPositionXZ: 0
    m_HeightFromFeet: 0
    m_Mirror: 0
  m_EditorCurves: []
  m_EulerEditorCurves: []
  m_HasGenericRootTransform: 0
  m_HasMotionFloatCurves: 0
  m_Events: []
