%YAML 1.1
%TAG !u! tag:unity3d.com,2011:
--- !u!1001 &3830145129493337993
PrefabInstance:
  m_ObjectHideFlags: 0
  serializedVersion: 2
  m_Modification:
    m_TransformParent: {fileID: 0}
    m_Modifications:
    - target: {fileID: -8679921383154817045, guid: 7f2d00acc87f4fc4b8dcfdc3bcf535e4, type: 3}
      propertyPath: m_RootOrder
      value: 0
      objectReference: {fileID: 0}
    - target: {fileID: -8679921383154817045, guid: 7f2d00acc87f4fc4b8dcfdc3bcf535e4, type: 3}
      propertyPath: m_LocalPosition.x
      value: -195.22467
      objectReference: {fileID: 0}
    - target: {fileID: -8679921383154817045, guid: 7f2d00acc87f4fc4b8dcfdc3bcf535e4, type: 3}
      propertyPath: m_LocalPosition.y
      value: 734.0905
      objectReference: {fileID: 0}
    - target: {fileID: -8679921383154817045, guid: 7f2d00acc87f4fc4b8dcfdc3bcf535e4, type: 3}
      propertyPath: m_LocalPosition.z
      value: -777.2179
      objectReference: {fileID: 0}
    - target: {fileID: -8679921383154817045, guid: 7f2d00acc87f4fc4b8dcfdc3bcf535e4, type: 3}
      propertyPath: m_LocalRotation.w
      value: 1
      objectReference: {fileID: 0}
    - target: {fileID: -8679921383154817045, guid: 7f2d00acc87f4fc4b8dcfdc3bcf535e4, type: 3}
      propertyPath: m_LocalRotation.x
      value: 0
      objectReference: {fileID: 0}
    - target: {fileID: -8679921383154817045, guid: 7f2d00acc87f4fc4b8dcfdc3bcf535e4, type: 3}
      propertyPath: m_LocalRotation.y
      value: 0
      objectReference: {fileID: 0}
    - target: {fileID: -8679921383154817045, guid: 7f2d00acc87f4fc4b8dcfdc3bcf535e4, type: 3}
      propertyPath: m_LocalRotation.z
      value: 0
      objectReference: {fileID: 0}
    - target: {fileID: -8679921383154817045, guid: 7f2d00acc87f4fc4b8dcfdc3bcf535e4, type: 3}
      propertyPath: m_LocalEulerAnglesHint.x
      value: 0
      objectReference: {fileID: 0}
    - target: {fileID: -8679921383154817045, guid: 7f2d00acc87f4fc4b8dcfdc3bcf535e4, type: 3}
      propertyPath: m_LocalEulerAnglesHint.y
      value: 0
      objectReference: {fileID: 0}
    - target: {fileID: -8679921383154817045, guid: 7f2d00acc87f4fc4b8dcfdc3bcf535e4, type: 3}
      propertyPath: m_LocalEulerAnglesHint.z
      value: 0
      objectReference: {fileID: 0}
    - target: {fileID: 919132149155446097, guid: 7f2d00acc87f4fc4b8dcfdc3bcf535e4, type: 3}
      propertyPath: m_Name
      value: 'caja de petri '
      objectReference: {fileID: 0}
    m_RemovedComponents: []
  m_SourcePrefab: {fileID: 100100000, guid: 7f2d00acc87f4fc4b8dcfdc3bcf535e4, type: 3}
