%YAML 1.1
%TAG !u! tag:unity3d.com,2011:
--- !u!1001 &4407426194922366967
PrefabInstance:
  m_ObjectHideFlags: 0
  serializedVersion: 2
  m_Modification:
    m_TransformParent: {fileID: 0}
    m_Modifications:
    - target: {fileID: -8679921383154817045, guid: ced9c1021ab6fa447810bbf69eb1919f, type: 3}
      propertyPath: m_RootOrder
      value: 0
      objectReference: {fileID: 0}
    - target: {fileID: -8679921383154817045, guid: ced9c1021ab6fa447810bbf69eb1919f, type: 3}
      propertyPath: m_LocalPosition.x
      value: 12.623993
      objectReference: {fileID: 0}
    - target: {fileID: -8679921383154817045, guid: ced9c1021ab6fa447810bbf69eb1919f, type: 3}
      propertyPath: m_LocalPosition.y
      value: 13.674946
      objectReference: {fileID: 0}
    - target: {fileID: -8679921383154817045, guid: ced9c1021ab6fa447810bbf69eb1919f, type: 3}
      propertyPath: m_LocalPosition.z
      value: 14.793867
      objectReference: {fileID: 0}
    - target: {fileID: -8679921383154817045, guid: ced9c1021ab6fa447810bbf69eb1919f, type: 3}
      propertyPath: m_LocalRotation.w
      value: 0.7071067
      objectReference: {fileID: 0}
    - target: {fileID: -8679921383154817045, guid: ced9c1021ab6fa447810bbf69eb1919f, type: 3}
      propertyPath: m_LocalRotation.x
      value: -0.7071068
      objectReference: {fileID: 0}
    - target: {fileID: -8679921383154817045, guid: ced9c1021ab6fa447810bbf69eb1919f, type: 3}
      propertyPath: m_LocalRotation.y
      value: 0
      objectReference: {fileID: 0}
    - target: {fileID: -8679921383154817045, guid: ced9c1021ab6fa447810bbf69eb1919f, type: 3}
      propertyPath: m_LocalRotation.z
      value: -0
      objectReference: {fileID: 0}
    - target: {fileID: -8679921383154817045, guid: ced9c1021ab6fa447810bbf69eb1919f, type: 3}
      propertyPath: m_LocalEulerAnglesHint.x
      value: 0
      objectReference: {fileID: 0}
    - target: {fileID: -8679921383154817045, guid: ced9c1021ab6fa447810bbf69eb1919f, type: 3}
      propertyPath: m_LocalEulerAnglesHint.y
      value: 0
      objectReference: {fileID: 0}
    - target: {fileID: -8679921383154817045, guid: ced9c1021ab6fa447810bbf69eb1919f, type: 3}
      propertyPath: m_LocalEulerAnglesHint.z
      value: 0
      objectReference: {fileID: 0}
    - target: {fileID: 919132149155446097, guid: ced9c1021ab6fa447810bbf69eb1919f, type: 3}
      propertyPath: m_Name
      value: Hongotextura (2)
      objectReference: {fileID: 0}
    m_RemovedComponents: []
  m_SourcePrefab: {fileID: 100100000, guid: ced9c1021ab6fa447810bbf69eb1919f, type: 3}
