%YAML 1.1
%TAG !u! tag:unity3d.com,2011:
--- !u!1001 &5238133638475076335
PrefabInstance:
  m_ObjectHideFlags: 0
  serializedVersion: 2
  m_Modification:
    m_TransformParent: {fileID: 0}
    m_Modifications:
    - target: {fileID: -8679921383154817045, guid: a77292933259e4c429fce884f54282c3, type: 3}
      propertyPath: m_RootOrder
      value: 0
      objectReference: {fileID: 0}
    - target: {fileID: -8679921383154817045, guid: a77292933259e4c429fce884f54282c3, type: 3}
      propertyPath: m_LocalPosition.x
      value: -166.6883
      objectReference: {fileID: 0}
    - target: {fileID: -8679921383154817045, guid: a77292933259e4c429fce884f54282c3, type: 3}
      propertyPath: m_LocalPosition.y
      value: 194.59744
      objectReference: {fileID: 0}
    - target: {fileID: -8679921383154817045, guid: a77292933259e4c429fce884f54282c3, type: 3}
      propertyPath: m_LocalPosition.z
      value: 66.507774
      objectReference: {fileID: 0}
    - target: {fileID: -8679921383154817045, guid: a77292933259e4c429fce884f54282c3, type: 3}
      propertyPath: m_LocalRotation.w
      value: 0.7071067
      objectReference: {fileID: 0}
    - target: {fileID: -8679921383154817045, guid: a77292933259e4c429fce884f54282c3, type: 3}
      propertyPath: m_LocalRotation.x
      value: -0.7071068
      objectReference: {fileID: 0}
    - target: {fileID: -8679921383154817045, guid: a77292933259e4c429fce884f54282c3, type: 3}
      propertyPath: m_LocalRotation.y
      value: 0
      objectReference: {fileID: 0}
    - target: {fileID: -8679921383154817045, guid: a77292933259e4c429fce884f54282c3, type: 3}
      propertyPath: m_LocalRotation.z
      value: -0
      objectReference: {fileID: 0}
    - target: {fileID: -8679921383154817045, guid: a77292933259e4c429fce884f54282c3, type: 3}
      propertyPath: m_LocalEulerAnglesHint.x
      value: 0
      objectReference: {fileID: 0}
    - target: {fileID: -8679921383154817045, guid: a77292933259e4c429fce884f54282c3, type: 3}
      propertyPath: m_LocalEulerAnglesHint.y
      value: 0
      objectReference: {fileID: 0}
    - target: {fileID: -8679921383154817045, guid: a77292933259e4c429fce884f54282c3, type: 3}
      propertyPath: m_LocalEulerAnglesHint.z
      value: 0
      objectReference: {fileID: 0}
    - target: {fileID: 919132149155446097, guid: a77292933259e4c429fce884f54282c3, type: 3}
      propertyPath: m_Name
      value: tela metalica
      objectReference: {fileID: 0}
    m_RemovedComponents: []
  m_SourcePrefab: {fileID: 100100000, guid: a77292933259e4c429fce884f54282c3, type: 3}
