%YAML 1.1
%TAG !u! tag:unity3d.com,2011:
--- !u!1001 &7973813914277881131
PrefabInstance:
  m_ObjectHideFlags: 0
  serializedVersion: 2
  m_Modification:
    m_TransformParent: {fileID: 0}
    m_Modifications:
    - target: {fileID: -8679921383154817045, guid: 4ad42d9689541e54bbcca7ac7afc2002, type: 3}
      propertyPath: m_RootOrder
      value: 0
      objectReference: {fileID: 0}
    - target: {fileID: -8679921383154817045, guid: 4ad42d9689541e54bbcca7ac7afc2002, type: 3}
      propertyPath: m_LocalPosition.x
      value: 21.795273
      objectReference: {fileID: 0}
    - target: {fileID: -8679921383154817045, guid: 4ad42d9689541e54bbcca7ac7afc2002, type: 3}
      propertyPath: m_LocalPosition.y
      value: 39.47094
      objectReference: {fileID: 0}
    - target: {fileID: -8679921383154817045, guid: 4ad42d9689541e54bbcca7ac7afc2002, type: 3}
      propertyPath: m_LocalPosition.z
      value: 73.42594
      objectReference: {fileID: 0}
    - target: {fileID: -8679921383154817045, guid: 4ad42d9689541e54bbcca7ac7afc2002, type: 3}
      propertyPath: m_LocalRotation.w
      value: 1
      objectReference: {fileID: 0}
    - target: {fileID: -8679921383154817045, guid: 4ad42d9689541e54bbcca7ac7afc2002, type: 3}
      propertyPath: m_LocalRotation.x
      value: 0
      objectReference: {fileID: 0}
    - target: {fileID: -8679921383154817045, guid: 4ad42d9689541e54bbcca7ac7afc2002, type: 3}
      propertyPath: m_LocalRotation.y
      value: 0
      objectReference: {fileID: 0}
    - target: {fileID: -8679921383154817045, guid: 4ad42d9689541e54bbcca7ac7afc2002, type: 3}
      propertyPath: m_LocalRotation.z
      value: 0
      objectReference: {fileID: 0}
    - target: {fileID: -8679921383154817045, guid: 4ad42d9689541e54bbcca7ac7afc2002, type: 3}
      propertyPath: m_LocalEulerAnglesHint.x
      value: 0
      objectReference: {fileID: 0}
    - target: {fileID: -8679921383154817045, guid: 4ad42d9689541e54bbcca7ac7afc2002, type: 3}
      propertyPath: m_LocalEulerAnglesHint.y
      value: 0
      objectReference: {fileID: 0}
    - target: {fileID: -8679921383154817045, guid: 4ad42d9689541e54bbcca7ac7afc2002, type: 3}
      propertyPath: m_LocalEulerAnglesHint.z
      value: 0
      objectReference: {fileID: 0}
    - target: {fileID: 919132149155446097, guid: 4ad42d9689541e54bbcca7ac7afc2002, type: 3}
      propertyPath: m_Name
      value: TrianguloDeArsilla1
      objectReference: {fileID: 0}
    m_RemovedComponents: []
  m_SourcePrefab: {fileID: 100100000, guid: 4ad42d9689541e54bbcca7ac7afc2002, type: 3}
