%YAML 1.1
%TAG !u! tag:unity3d.com,2011:
--- !u!114 &11400000
MonoBehaviour:
  m_ObjectHideFlags: 0
  m_CorrespondingSourceObject: {fileID: 0}
  m_PrefabInstance: {fileID: 0}
  m_PrefabAsset: {fileID: 0}
  m_GameObject: {fileID: 0}
  m_Enabled: 1
  m_EditorHideFlags: 0
  m_Script: {fileID: 11500000, guid: c93522b7c3b357a45934b01a4e61af4d, type: 3}
  m_Name: Litio
  m_EditorClassIdentifier: 
  nroAtomico: 3
  masaAtomica: 6.941
  simbolo: Li
  nombre: Litio
